{
  "title": "Na Roda do Samba",
  "description": "Por outro lado, a mobilidade dos capitais internacionais nos obriga à análise do orçamento setorial.",
  "date": "26 AGO",
  "time": "14:00",
  "address": "Praça Jardim do Méier",
  "fee": "Grátis",
  "images": {
    "poster": "https://johnbfr.files.wordpress.com/2012/09/5-setembro-2012-4c2aa-feira-lanc3a7amento-da-camisa-gloriosa-feminina-do-botafogo-na-loja-oficial-em-general-severiano-foto-de-wagner-meier-agif-4.jpg",
    "thumbnail": "https://johnbfr.files.wordpress.com/2012/09/5-setembro-2012-4c2aa-feira-lanc3a7amento-da-camisa-gloriosa-feminina-do-botafogo-na-loja-oficial-em-general-severiano-foto-de-wagner-meier-agif-5.jpg"
   }
}